{
  "translation-author": "§c§lPřekladatelé: §b§lGhost_chu",
  "translation-contributors": "§c§lPřispěli: §b§lTimtower, Netherfoam, KaiNoMood and Mgazul",
  "translation-version": "§c§lPodporovaná verze: §b§lReremake",
  "translation-country": "§c§lJazyková zóna: §b§lEnglish (en_US)",
  "language-version": 29,
  "not-looking-at-shop": "§cNenalezen žádný QuickShop. Musíš na něj koukat",
  "no-anythings-in-your-hand": "§cNemáš nic v ruce.",
  "no-permission": "§cNa toto nemáš povolení.",
  "no-creative-break": "&cNemůžeš ničit shopy ostatních hráčů v creativu. Použij survival nebo Supertool ({0}).",
  "no-double-chests": "§cNemůžeš níčit hráčům Shop. Použij Survival nebo Supertool ({0}).",
  "shop-already-owned": "§cToto je již shop.",
  "chest-was-removed": "§cChesta odstraněna.",
  "price-too-cheap": "§cCena musí být vyšší jak §e$0.01",
  "no-price-change": "§cTo by nezměnilo cenu!",
  "you-cant-afford-a-new-shop": "§cVytvoření shopu stojí {0}.",
  "player-bought-from-your-store-tax": "§c{0} zakoupil {1} {2} z tvého obchodu a ty jsi zaplatil {3} na daních.",
  "you-cant-afford-to-change-price": "§cStojí to {0} změnit cenu u obchodu.",
  "success-created-shop": "§aShop vytvořen.",
  "success-removed-shop": "§aShop odstraněn.",
  "shops-arent-locked": "§cNezapomeň, obchody nejsou chráněny! Pokud chceš zamezit krádeži, použij Residenci nebo LWC!",
  "shop-creation-cancelled": "§cZrušeno tvoření shopu.",
  "shop-purchase-cancelled": "§cZrušeno zakoupení.",
  "shop-stock-too-low": "§cTento shop má pouze {0} {1}",
  "you-cant-afford-to-buy": "§cToto stojí {0}, ale ty máš pouze {1}",
  "negative-amount": "§cPako, nemůžeš obchodovat s negativním množstvím",
  "not-a-number": "&cZde může být pouze číslo, ale ty jsi zadal {0}",
  "not-a-integer": "&cZde může být jen Integer, ale ty jsi zadal {0}",
  "player-bought-from-your-store": "§a{0} zakoupil §b{1} {2} §az tvého obchodu.",
  "shop-out-of-stock": "§cTvůj shop na {0}, {1}, {2}, již nemá dostatek {3}",
  "shop-has-no-space": "§cTento shop má již místo pouze na {0} {1}.",
  "you-dont-have-that-many-items": "§cMáš pouze {0} {1}.",
  "the-owner-cant-afford-to-buy-from-you": "§cTo stojí {0}, ale vlastník má pouze {1}",
  "player-sold-to-your-store": "§a{0} prodal {1} {2} do tvého obchodu.",
  "shop-out-of-space": "§cTvůj shop na {0}, {1}, {2}, je plný.",
  "fee-charged-for-price-change": "§aZaplatíš §c{0}§a pro změnu ceny.",
  "price-is-now": "§aNová cena shopu je §e{0}",
  "thats-not-a-number": "§cNeplatné číslo",
  "no-price-given": "§cZadej prosím platnou cenu.",
  "average-price-nearby": "§aPrůměrná cenu kolem: §e{0}",
  "shop-has-changed": "§cShop, který jsi zkusil byl updatován od doby, co jsi na něj kliknul!",
  "shop-not-exist": "&cZde není žádný shop.",
  "nearby-shop-this-way": "§aShop je {0} bloků od tebe.",
  "no-nearby-shop": "§cŽádné shopy se shodují {0} kolem.",
  "buying-more-than-selling": "§cUPOZORNĚNÍ: Kupuješ itemy za větší cenu než je prodáváš!",
  "not-enough-space": "§cMáš místo pouze na {0} dalších itemů!",
  "refill-success": "§aDoplnění úspěšné",
  "empty-success": "§aVyprázdnění úspěšné",
  "admin-shop": "AdminShop",
  "unknown-owner": "Neznámý",
  "owner-bypass-check": "§eKontrola bypassnuto, obchod byl úspěšný (Ty jsi majitelem obchodu).",
  "reached-maximum-can-create": "§cUž jsi vytvořil maximum {0}/{1} shopů!",
  "restricted-prices": "§cOmezená cena pro {0}: minimálně {1} , maximálně {2}",
  "no-enough-money-to-keep-shops": "§cNeměl jsi peníze na udržení tvých obchodů! Všechny shopy byly smazány...",
  "nothing-to-flush": "&aNemáš žádné nové obchodní zprávy.",
  "break-shop-use-supertool": "&eMůžeš shop zničit použitím SuperTool.",
  "failed-to-put-sign": "&cNemáš dost místa kolem shopu pro položení další informační tabulky.",
  "failed-to-paste": "&cNebylo možné nahrát data do Pastebinu, zkontroluj připojení a zkus to znovu. (Koukni se do konzole pro detaily)",
  "warn-to-paste": "&eSbírám data a nahrávám do Pastebinu, toto chvíli potrvá. &c&lUpozornění&c, Data jsou veřejná jeden týden a mohlo by to vyzradit nastavení serveru, ujisti se, že to posíláš pouze &ldůvěryhodnému staffu.",
  "price-too-high": "&c Obchodní cena je příliš vysoká' Nemůžeš vytvořit vyšší než {0}.",
  "you-cant-create-shop-in-there": "§cNemáš oprávnění postavit shop na této lokaci.",
  "unknown-player": "&cCílový hráč neexistuje, zkontroluj zadané jméno.",
  "shop-staff-cleared": "&aÚspěšně odstraněn veškerý personál shopu.",
  "shop-staff-added": "&aÚspěšně přidán(o) {0} člen(ů) k personálu tvého shopu.",
  "shop-staff-deleted": "&aÚspěšně odstraněn(o) {0} člen(ů) personálu tvého shopu.",
  "no-permission-build": "&cNemůžeš postavit shop zde.",
  "success-change-owner-to-server": "&aÚspěšně nastaven Server jako majitel shopu.",
  "flush-finished": "&aÚspěšně smázány zprávy.",
  "purchase-failed": "&cObchod selhal: Interní Chyba, prosím kontaktujte admina.",
  "no-pending-action": "&cNemáš žádnou čekající akci",
  "permission-denied-3rd-party": "&cOprávnění odmítnuto: plugin třetí strany [{0}].",
  "menu": {
    "successful-purchase": "§aÚspěšně zakoupeno:",
    "successfully-sold": "§aÚspěšně prodáno:",
    "item-name-and-price": "§e{0} {1} §aza §e{2}",
    "sell-tax": "§aZaplatil jsi §e{0} §ajako daň.",
    "sell-tax-self": "§aNevlastníš tento shop, takže neplatíš daň.",
    "enchants": "§bEnchanty",
    "stored-enchants": "§bUschované enchanty",
    "shop-information": "§bInformace o shopu:",
    "owner": "§bVlastník: §3{0}",
    "item": "§bItem: §3{0}",
    "preview": "§b[Zobrazit item]",
    "space": "§bMísto: §3{0}",
    "stock": "§bShop obsahuje: §3{0}x Item",
    "price-per": "§bCena za §3{0} §b- §3{1}",
    "total-value-of-chest": "§bCelková cena truhly: §3{0}",
    "damage-percent-remaining": "§bZbývá §3{0}%§b.",
    "this-shop-is-buying": "§aTento shop §bVYKUPUJE§a itemy.",
    "this-shop-is-selling": "§aTento shop §bPRODÁVÁ§a itemy.",
    "effects": "§bEfekty: §3{0}",
    "commands": {
      "preview": "/qs silentpreview {0} {1} {2} {3}"
    }
  },
  "bypassing-lock": "§cObcházím lock QuickShopu!",
  "that-is-locked": "§cTento shop je zamknut.",
  "how-many-buy": "&aZadej kolikrát chceš &bKOUPIT&a do chatu. Můžeš koupit &e{0}&a. Napiš &ball&a pro koupení všeho.",
  "how-many-sell": "&aZadej kolikrát chceš to &dPRODAT&a do chatu. Můžeš prodat &e{0}&a. Napiš &ball&a pro prodání všeho.",
  "not-allowed-to-create": "§cZde nemůžeš vytvořit shop.",
  "blacklisted-item": "§cTento item je zakázán. Nesmíš ho prodávat!",
  "how-much-to-trade-for": "§aZadej, kolik bude stát jeden §e{0}§a do chatu.",
  "command": {
    "toggle-unlimited": {
      "unlimited": "&aShop je není neomezený",
      "limited": "&aShop je nyní omezený"
    },
    "no-owner-given": "§cNení určen majitel. Použij §a/qs setowner <player>§c",
    "new-owner": "§aNový majitel: §e{0}",
    "now-buying": "§aNyní §dKUPUJEŠ§a §e{0}",
    "now-selling": "§aNyní §bPRODÁVÁŠ §e{0}",
    "cleaning": "§aUklízím shopy bez itemů...",
    "reloading": "§aReloaduji...",
    "cleaned": "§aSmazáno §e{0}§a shopů",
    "no-type-given": "§cPoužití: /qs find <item>",
    "no-amount-given": "cNebyla zadána částka. Napiš §a/qs refill <amount>§c",
    "now-debuging": "&aÚspěšně přepnuto do vývojářského módu, Reloaduji QuickShop...",
    "now-nolonger-debuging": "&aÚspěšně přepnuto do módu produkce, Reloaduji QuickShop...",
    "description": {
      "title": "§aQuickShop Help",
      "unlimited": "§eUdělá shop neomezený",
      "setowner": "§eZmění majitele shopu",
      "buy": "§eZmění shop na mód §dNÁKUP§e",
      "sell": "§eZmění shop na mód §bPRODEJ§e",
      "clean": "§eOdstraní všechny (načtené) shopy bez věcí",
      "price": "§eZmění prodejní/nákupní cenu jednoho z tvých itemů",
      "find": "§eZjistí polohu nejbližšího obchodu.",
      "reload": "§eReloaduje QuickShop z config.yml",
      "refill": "§ePřidá počet itemů do shopu",
      "empty": "§eOdstraní všechny itemy ze shopu",
      "create": "§eVytvoří nový shop u cílové chestky",
      "debug": "&ePřepne na vývojářský mód",
      "fetchmessage": "&eVezme obchodní zprávy",
      "info": "&eUkáže QuickShop Statistiky",
      "paste": "&eAutomaticky načte serverová data do Pastebinu",
      "staff": "&eSpravuje personál tvého shopu",
      "owner": "&eZmění majitele shopu",
      "remove": "&eOdstraní shop, na který koukáš",
      "amount": "&eVykoná akce s množstvím(Pro chatové plugin problémy)",
      "about": "&eUkáže informace o QuickShopu",
      "help": "&eUkáže QuickShop help",
      "supercreate": "&eVytvoří shop, který obchází ochranné kontroly"
    },
    "wrong-args": "&cParametry se neshodují, použij /qs help pro pomoc",
    "no-target-given": "&cPoužití: /qs export mysql|sqlite"
  },
  "signs": {
    "header": "§b{0}",
    "selling": "Prodává {0}",
    "buying": "Kupuje {0}",
    "item": "{0}",
    "price": "{0} každý",
    "unlimited": "Neomezeno"
  },
  "controlpanel": {
    "infomation": "&aKontrolní panel shopu:",
    "setowner": "&aMajitel: &b{0} &e[&d&lChange&e]",
    "setowner-hover": "&eKlikni pro změnu majitele.",
    "unlimited": "&aNeomezeno: {0} &e[&d&lSwitch&e]",
    "unlimited-hover": "&eKoukej při změně shopu a klikni pro zapnutí/vypnutí.",
    "mode-selling": "&aMód shop: &bProdává &e[&d&lSwitch&e]",
    "mode-selling-hover": "&eKoukej při změně shopu a klikni pro zapnutí/vypnutí.",
    "mode-buying": "&aMód shopu: &bKupuje se &e[&d&lSwitch&e]",
    "mode-buying-hover": "&eKoukej při změně shopu a klikni pro zapnutí/vypnutí.",
    "price": "&aCena: &b{0} &e[&d&lSet&e]",
    "price-hover": "&eKlikni pro nastavení nové ceny shopu.",
    "refill": "&aDoplnění: Doplní itemy v shopu &e[&d&lOK&e]",
    "refill-hover": "&eKlikni pro doplnění shopu.",
    "empty": "&aVyprázdnit: Vyprázdní všechny itemy &e[&d&lOK&e]",
    "empty-hover": "&eKlikni pro vyprázdnění inventáře shopu.",
    "remove": "&c&l[Odstranit shop]",
    "remove-hover": "&eKlikni pro odstranění shopu.",
    "commands": {
      "setowner": "/qs setowner [Player]",
      "unlimited": "/qs silentunlimited {0} {1} {2} {3}",
      "buy": "/qs silentbuy {0} {1} {2} {3}",
      "sell": "/qs silentsell {0} {1} {2} {3}",
      "price": "/qs price [New Price]",
      "refill": "/qs refill [Amount]",
      "empty": "/qs silentempty {0} {1} {2} {3}",
      "remove": "/qs silentremove {0} {1} {2} {3}"
    }
  },
  "tableformat": {
    "full_line": "+---------------------------------------------------+",
    "left_half_line": "+--------------------",
    "right_half_line": "--------------------+",
    "left_begin": "| "
  },
  "booleanformat": {
    "success": "&a✔",
    "failed": "&c✘"
  },
  "tabcomplete": {
    "price": "[cena]",
    "range": "[rozsah]",
    "amount": "[množství]"
  },
  "updatenotify": {
    "buttontitle": "[Updatuj teď]",
    "list": [
      "{0} je vydaná, ty používáš {1}!",
      "Boom! Nový update {0} přichází, Updatuj!",
      "Překvapení! {0} vyšla, ty používáš {1}",
      "Vypadá to, že potřebuješ updatnout, {0} byla vydána!",
      "Ooops! {0} je nyní vydána, ty používáš {1}!",
      "Slibuji ti, QS byl updatován na {0}, proč jsi ještě neupdatoval?",
      "Opravování a re... Promiň {0} byla vydána!",
      "Err! Nope, tohle není chyba, {0} právě vyšla!",
      "OMG! {0} vyšla! Proč ještě používáš {1}?",
      "Dnešní zpráva: QuickShop byl updatován na {0}!",
      "Plugin K.I.A, Měl bys updatovat na {0}!",
      "Fuze fúzuje update {0}, tak updatuj!",
      "Veliteli je tu update, {0} právě vyšla!",
      "Koukni na mě---{0} právě vyšla, ty stále využíváš {1}",
      "Ahhhhhhh! Nový update {0}! Updatuj!",
      "Co děláš? {0} právě vyšel! Updatuj!"
    ],
    "onekeybuttontitle": "[Update Jedním Kliknutím]",
    "remote-disable-warning": "&cTato verze QuickShopu byla zablokována dálkovým serverem, což znamená, že tato verze může mít vážné problémy, zjisti detaily z naší SpigotMC stránky: {0}. Toto varování bude vyskakovat a spamovat konzoli, dokud nepřepnete na nezablokovanou verzi. Neovlivňuje běh serveru.",
    "label": {
      "unstable": "[Nestabilní]",
      "stable": "[Stabilní]",
      "lts": "[LTS]",
      "qualityverifyed": "[Kvalita]",
      "github": "[Github]",
      "spigotmc": "[SpigotMC]",
      "bukkitdev": "[BukkitDev]",
      "master": "[Master]"
    }
  },
  "shop-removed-cause-ongoing-fee": "&cTvůj shop na {0}, protože jsi neměl peníze, abys ho udržel!",
  "language-author": "§c§lPřekladatel: §b§lramenhair, Alu01, sad_mirai",
  "language-contributors": "§c§lPřispíval: §b§lWarfareMC.eu",
  "language-country": "§c§lLokalita: §b§lČeština (cz_CZ)",
  "language-name": "cz_CZ",
  "no-permission-remove-shop": "&cNemáš oprávnění na tento příkaz. Zkusit namísto toho zničit shop?",
  "digits-reach-the-limit": "&cDosáhl jsi limitu cifer po desetinné čárce v ceně.",
  "complete": "&aDokončeno!",
  "quickshop-gui-preview": "QuickShop GUI Náhledový item",
  "shops-recovering": "Obnovuji shopy ze zálohy...",
  "shops-backingup": "Zálohuji shopy do databáze...",
  "saved-to-path": "Soubor zálohy byl uložen do {0} .",
  "backup-failed": "Nelze zálohovat databázi, koukni se do konzole pro detaily."
  "translate-not-completed-yet-click": "Překlad jazyka {0} byl dokončen {1}, Chceš nám pomoct zlepšit překlad? Klikni sem!",
  "translate-not-completed-yet-url": "Překlad jazyka {0} byl dokončen {1}, Chceš nám pomoct zlepšit překlad? Jdi na: {2}",
  "language-info-panel": {
    "name": "Jazyk: ",
    "code": "Kód: ",
    "progress": "Stav: ",
    "help": "Pomož nám: ",
    "translate-on-crowdin": "[Přeloženo na]"
  },
  "not-managed-shop": "Nejsi majitel ani moderátor shopu"
}